{"created_at":"Fri Jun 21 14:48:08 +0000 2013",
"id":348089960403959808,"id_str":"348089960403959808",
"text":"RT @RusMicrosoft: \u0423\u0440\u0430! \u0427\u0438\u0441\u043b\u043e \u043f\u043e\u0434\u043f\u0438\u0441\u0447\u0438\u043a\u043e\u0432 \u0440\u043e\u0441\u0441\u0438\u0439\u0441\u043a\u043e\u0439 \u0441\u0442\u0440\u0430\u043d\u0438\u0446\u044b Windows Phone \u0432 Facebook \u043f\u0440\u0435\u0432\u044b\u0441\u0438\u043b\u043e \u043e\u0442\u043c\u0435\u0442\u043a\u0443 \u0432 10 \u0442\u044b\u0441., \u043f\u043e\u0437\u0434\u0440\u0430\u0432\u043b\u044f\u0435\u043c! http:\/\/t.co\u2026",
"source":"\u003ca href=\"http:\/\/www.metrotwit.com\/\" rel=\"nofollow\"\u003eMetroTwit\u003c\/a\u003e",
"truncated":false,"in_reply_to_status_id":null,"in_reply_to_status_id_str":null,"in_reply_to_user_id":null,
"in_reply_to_user_id_str":null,"in_reply_to_screen_name":null,
"user":{"id":14202157,
    "id_str":"14202157","name":"Mik Chernomordikov","screen_name":"mixen","location":"Moscow, RU - Redmond, WA",
    "url":"http:\/\/todayapp.ru","description":"Evangelism Unit Lead in Microsoft Russia. Responsible for Windows and Windows Phone apps ecosystems in Russia. This twitter reflects my personal opinions (18+)",
    "protected":false,"followers_count":4464,"friends_count":183,"listed_count":262,
    "created_at":"Sun Mar 23 14:31:12 +0000 2008","favourites_count":5,"utc_offset":14400,
    "time_zone":"Moscow","geo_enabled":true,"verified":false,"statuses_count":18111,"lang":"ru",
    "contributors_enabled":false,"is_translator":false,"profile_background_color":"000000",
    "profile_background_image_url":"http:\/\/a0.twimg.com\/profile_background_images\/64804606\/tropicalwinter.jpg",
    "profile_background_image_url_https":"https:\/\/si0.twimg.com\/profile_background_images\/64804606\/tropicalwinter.jpg",
    "profile_background_tile":false,
    "profile_image_url":"http:\/\/a0.twimg.com\/profile_images\/2286112753\/kvw2reja3esxl7tibwdl_normal.jpeg",
    "profile_image_url_https":"https:\/\/si0.twimg.com\/profile_images\/2286112753\/kvw2reja3esxl7tibwdl_normal.jpeg",
    "profile_link_color":"BA7283","profile_sidebar_border_color":"BA7283","profile_sidebar_fill_color":"000000",
    "profile_text_color":"000000","profile_use_background_image":true,"default_profile":false,"default_profile_image":false,
    "following":null,"follow_request_sent":null,"notifications":null},
"geo":null,
"coordinates":null,
"place":null,
"contributors":null,
"retweeted_status":
    {"created_at":"Fri Jun 21 14:39:25 +0000 2013",
    "id":348087769094037505,"id_str":"348087769094037505",
    "text":"\u0423\u0440\u0430! \u0427\u0438\u0441\u043b\u043e \u043f\u043e\u0434\u043f\u0438\u0441\u0447\u0438\u043a\u043e\u0432 \u0440\u043e\u0441\u0441\u0438\u0439\u0441\u043a\u043e\u0439 \u0441\u0442\u0440\u0430\u043d\u0438\u0446\u044b Windows Phone \u0432 Facebook \u043f\u0440\u0435\u0432\u044b\u0441\u0438\u043b\u043e \u043e\u0442\u043c\u0435\u0442\u043a\u0443 \u0432 10 \u0442\u044b\u0441., \u043f\u043e\u0437\u0434\u0440\u0430\u0432\u043b\u044f\u0435\u043c! http:\/\/t.co\/vg5czikC5W",
    "source":"web","truncated":false,"in_reply_to_status_id":null,
    "in_reply_to_status_id_str":null,
    "in_reply_to_user_id":null,"in_reply_to_user_id_str":null,
    "in_reply_to_screen_name":null,
    "user":
        {"id":98339494,"id_str":"98339494","name":"Microsoft \u0420\u043e\u0441\u0441\u0438\u044f",
        "screen_name":"RusMicrosoft","location":"\u041c\u043e\u0441\u043a\u0432\u0430","url":"http:\/\/ms4press.ru",
        "description":"\u041e\u0444\u0438\u0446\u0438\u0430\u043b\u044c\u043d\u044b\u0439 \u0430\u043a\u043a\u0430\u0443\u043d\u0442 \u0440\u043e\u0441\u0441\u0438\u0439\u0441\u043a\u043e\u0433\u043e \u043f\u0440\u0435\u0434\u0441\u0442\u0430\u0432\u0438\u0442\u0435\u043b\u044c\u0441\u0442\u0432\u0430 Microsoft. \u041e\u0442\u0432\u0435\u0442\u044b \u043d\u0430 \u0442\u0435\u0445\u043d\u0438\u0447\u0435\u0441\u043a\u0438\u0435 \u0432\u043e\u043f\u0440\u043e\u0441\u044b \u2014 @MSHelpsRU",
        "protected":false,"followers_count":9676,"friends_count":1,"listed_count":332,
        "created_at":"Mon Dec 21 09:57:13 +0000 2009","favourites_count":0,
        "utc_offset":14400,"time_zone":"St. Petersburg","geo_enabled":false,
        "verified":false,"statuses_count":3069,"lang":"ru",
        "contributors_enabled":false,"is_translator":false,"profile_background_color":"01BCF3",
        "profile_background_image_url":"http:\/\/a0.twimg.com\/profile_background_images\/650131238\/fqwalvwn9svsvukbrqeb.jpeg",
        "profile_background_image_url_https":"https:\/\/si0.twimg.com\/profile_background_images\/650131238\/fqwalvwn9svsvukbrqeb.jpeg",
        "profile_background_tile":false,"profile_image_url":"http:\/\/a0.twimg.com\/profile_images\/2535866066\/8nz9yw4epy8fn1ys5sim_normal.png",
        "profile_image_url_https":"https:\/\/si0.twimg.com\/profile_images\/2535866066\/8nz9yw4epy8fn1ys5sim_normal.png",
        "profile_banner_url":"https:\/\/pbs.twimg.com\/profile_banners\/98339494\/1367318507",
        "profile_link_color":"0084B4","profile_sidebar_border_color":"EEEEEE",
        "profile_sidebar_fill_color":"FFFFFF","profile_text_color":"333333",
        "profile_use_background_image":true,"default_profile":false,"default_profile_image":false,
        "following":null,"follow_request_sent":null,"notifications":null},
     "geo":null,"coordinates":null,"place":null,"contributors":null,
     "retweet_count":3,"favorite_count":0,
     "entities":{"hashtags":[],"symbols":[],"urls":[{"url":"http:\/\/t.co\/vg5czikC5W","expanded_url":"http:\/\/on.fb.me\/19a8wnd","display_url":"on.fb.me\/19a8wnd",
     "indices":[110,132]}],"user_mentions":[]},"favorited":false,
     "retweeted":false,"possibly_sensitive":false,"lang":"ru"},
""retweet_count":0,
"favorite_count":0,
"entities":{"hashtags":[],"symbols":[],"urls":[],
"user_mentions":[{"screen_name":"RusMicrosoft","name":"Microsoft \u0420\u043e\u0441\u0441\u0438\u044f","id":98339494,"id_str":"98339494","indices":[3,16]}]},
"favorited":false,"retweeted":false,
"filter_level":"medium",
"lang":"ru"}